{
	"anoxinon.me": {
		"lastCheck": {
			"content": "2021-11-10",
			"comment": ""
		},
		"website": {
			"content": {
				"de": "https://anoxinon.de/dienste/anoxinonmessenger/"
			},
			"comment": ""
		},
		"busFactor": {
			"content": -1,
			"source": "",
			"comment": ""
		},
		"company": {
			"content": false,
			"source": "https://anoxinon.de/ueber-uns/",
			"comment": ""
		},
		"passwordReset": {
			"content": {},
			"source": "https://anoxinon.de/faq/",
			"comment": "Manual reset via email"
		},
		"inBandRegistration": {
			"content": false,
			"source": "https://anoxinon.de/faq/",
			"comment": ""
		},
		"registrationWebPage": {
			"content": {
				"en": "https://xmpp.anoxinon.me/register/new"
			},
			"comment": ""
		},
		"ratingXmppComplianceTester": {
			"content": 100,
			"source": "https://compliance.conversations.im/server/anoxinon.me/",
			"comment": ""
		},
		"ratingImObservatoryClientToServer": {
			"content": "A",
			"source": "https://xmpp.net/result.php?domain=anoxinon.me&type=client",
			"comment": ""
		},
		"ratingImObservatoryServerToServer": {
			"content": "A",
			"source": "https://xmpp.net/result.php?domain=anoxinon.me&type=server",
			"comment": ""
		},
		"maximumHttpFileUploadFileSize": {
			"content": 25,
			"source": "https://anoxinon.de/faq/",
			"comment": ""
		},
		"maximumHttpFileUploadTotalSize": {
			"content": -1,
			"source": "",
			"comment": "Statement about limit on website missing but admin did not publish it yet"
		},
		"maximumHttpFileUploadStorageTime": {
			"content": 14,
			"source": "https://anoxinon.de/datenschutzerklaerung_xmpp/",
			"comment": ""
		},
		"maximumMessageArchiveManagementStorageTime": {
			"content": 14,
			"source": "https://anoxinon.de/datenschutzerklaerung_xmpp/",
			"comment": ""
		},
		"professionalHosting": {
			"content": true,
			"source": "https://anoxinon.de/faq/",
			"comment": ""
		},
		"freeOfCharge": {
			"content": true,
			"source": "https://anoxinon.de/ueber-uns/",
			"comment": ""
		},
		"legalNotice": {
			"content": {
				"de": "https://anoxinon.de/impressum/index.html"
			},
			"comment": ""
		},
		"serverLocations": {
			"content": [
				"de"
			],
			"source": "https://anoxinon.de/faq/",
			"comment": ""
		},
		"groupChatSupport": {
			"de": {
				"content": [
					"anoxinon@conference.anoxinon.me"
				],
				"source": "https://anoxinon.de/kontakt/",
				"comment": ""
			}
		},
		"chatSupport": {},
		"emailSupport": {
			"de": {
				"content": [
					"postfach@anoxinon.de"
				],
				"source": "https://anoxinon.de/kontakt/",
				"comment": ""
			}
		},
		"onlineSince": {
			"content": "2018-10-04",
			"source": "https://anoxinon.de/blog/anoxinonmessengereroeffnung/",
			"comment": ""
		}
	},
	"chapril.org": {
		"lastCheck": {
			"content": "2021-04-05",
			"comment": ""
		},
		"website": {
			"content": {
				"fr": "https://chapril.org/xmpp"
			},
			"comment": ""
		},
		"busFactor": {
			"content": -1,
			"source": "",
			"comment": ""
		},
		"company": {
			"content": false,
			"source": "https://www.chapril.org/a-propos.html",
			"comment": ""
		},
		"passwordReset": {
			"content": {},
			"comment": ""
		},
		"inBandRegistration": {
			"content": true,
			"source": "https://chapril.org/xmpp",
			"comment": "CAPTCHA is currently in French"
		},
		"registrationWebPage": {
			"content": {},
			"comment": ""
		},
		"ratingXmppComplianceTester": {
			"content": 100,
			"source": "https://compliance.conversations.im/server/chapril.org/",
			"comment": ""
		},
		"ratingImObservatoryClientToServer": {
			"content": "A",
			"source": "https://xmpp.net/result.php?domain=chapril.org&type=client",
			"comment": ""
		},
		"ratingImObservatoryServerToServer": {
			"content": "A",
			"source": "https://xmpp.net/result.php?domain=chapril.org&type=server",
			"comment": ""
		},
		"maximumHttpFileUploadFileSize": {
			"content": 250,
			"source": "https://www.chapril.org/Specificites-du-service-XMPP-de-Chapril.html",
			"comment": ""
		},
		"maximumHttpFileUploadTotalSize": {
			"content": 500,
			"source": "https://www.chapril.org/Specificites-du-service-XMPP-de-Chapril.html",
			"comment": ""
		},
		"maximumHttpFileUploadStorageTime": {
			"content": 380,
			"source": "https://www.chapril.org/Specificites-du-service-XMPP-de-Chapril.html",
			"comment": ""
		},
		"maximumMessageArchiveManagementStorageTime": {
			"content": 0,
			"source": "https://www.chapril.org/Specificites-du-service-XMPP-de-Chapril.html",
			"comment": ""
		},
		"professionalHosting": {
			"content": true,
			"source": "https://www.chapril.org/Mentions-legales.html",
			"comment": ""
		},
		"freeOfCharge": {
			"content": true,
			"source": "https://www.chapril.org/Specificites-du-service-XMPP-de-Chapril.html",
			"comment": ""
		},
		"legalNotice": {
			"content": {
				"fr": "https://chapril.org/cgu"
			},
			"comment": ""
		},
		"serverLocations": {
			"content": [
				"de"
			],
			"source": "https://www.chapril.org/Mentions-legales.html",
			"comment": ""
		},
		"groupChatSupport": {
			"fr": {
				"content": [
					"chapril@muc.chapril.org"
				],
				"source": "https://www.chapril.org/contact.html",
				"comment": ""
			}
		},
		"chatSupport": {},
		"emailSupport": {
			"fr": {
				"content": [
					"xmpp-support@chapril.org"
				],
				"source": "https://www.chapril.org/contact.html",
				"comment": ""
			}
		},
		"onlineSince": {
			"content": "2020-03-08",
			"source": "https://www.chapril.org/Specificites-du-service-XMPP-de-Chapril.html",
			"comment": ""
		}
	},
	"conversations.im": {
		"lastCheck": {
			"content": "2021-05-27",
			"comment": ""
		},
		"website": {
			"content": {
				"en": "https://account.conversations.im"
			},
			"comment": ""
		},
		"busFactor": {
			"content": -1,
			"source": "",
			"comment": ""
		},
		"company": {
			"content": true,
			"source": "https://account.conversations.im/contact",
			"comment": ""
		},
		"passwordReset": {
			"content": {
				"en": "https://account.conversations.im/password-recovery"
			},
			"comment": ""
		},
		"inBandRegistration": {
			"content": true,
			"source": "",
			"comment": ""
		},
		"registrationWebPage": {
			"content": {},
			"source": "",
			"comment": ""
		},
		"ratingXmppComplianceTester": {
			"content": 100,
			"source": "https://compliance.conversations.im/server/conversations.im",
			"comment": ""
		},
		"ratingImObservatoryClientToServer": {
			"content": "A",
			"source": "https://xmpp.net/result.php?domain=conversations.im&type=client",
			"comment": ""
		},
		"ratingImObservatoryServerToServer": {
			"content": "A",
			"source": "https://xmpp.net/result.php?domain=conversations.im&type=server",
			"comment": ""
		},
		"maximumHttpFileUploadFileSize": {
			"content": -1,
			"source": "",
			"comment": ""
		},
		"maximumHttpFileUploadTotalSize": {
			"content": -1,
			"source": "",
			"comment": ""
		},
		"maximumHttpFileUploadStorageTime": {
			"content": 90,
			"source": "https://account.conversations.im/privacy/",
			"comment": ""
		},
		"maximumMessageArchiveManagementStorageTime": {
			"content": 90,
			"source": "https://account.conversations.im/privacy/",
			"comment": ""
		},
		"professionalHosting": {
			"content": true,
			"source": "https://account.conversations.im",
			"comment": ""
		},
		"freeOfCharge": {
			"content": false,
			"source": "https://account.conversations.im",
			"comment": ""
		},
		"legalNotice": {
			"content": {
				"en": "https://account.conversations.im/privacy"
			},
			"comment": ""
		},
		"serverLocations": {
			"content": [],
			"source": "",
			"comment": ""
		},
		"groupChatSupport": {
			"en": {
				"content": [
					"conversations@conference.siacs.eu"
				],
				"source": "https://conversations.im",
				"comment": ""
			}
		},
		"chatSupport": {},
		"emailSupport": {
			"en": {
				"content": [
					"support@conversations.im"
				],
				"source": "https://account.conversations.im/contact/",
				"comment": ""
			}
		},
		"onlineSince": {
			"content": "2014-12-31",
			"source": "",
			"comment": "TODO: Insert correct month and day (current year is from copyright notice on https://conversations.im)"
		}
	},
	"dismail.de": {
		"lastCheck": {
			"content": "2021-07-23",
			"comment": ""
		},
		"website": {
			"content": {
				"en": "https://dismail.de"
			},
			"comment": ""
		},
		"busFactor": {
			"content": 1,
			"source": "https://dismail.de/stillalive.html",
			"comment": ""
		},
		"company": {
			"content": false,
			"source": "",
			"comment": ""
		},
		"passwordReset": {
			"content": {},
			"source": "https://dismail.de/faq.html",
			"comment": ""
		},
		"inBandRegistration": {
			"content": false,
			"source": "https://dismail.de/register.html",
			"comment": ""
		},
		"registrationWebPage": {
			"content": {},
			"source": "https://dismail.de/register.html",
			"comment": ""
		},
		"ratingXmppComplianceTester": {
			"content": 100,
			"source": "https://compliance.conversations.im/server/dismail.de/",
			"comment": ""
		},
		"ratingImObservatoryClientToServer": {
			"content": "A",
			"source": "https://xmpp.net/result.php?domain=dismail.de&type=client",
			"comment": ""
		},
		"ratingImObservatoryServerToServer": {
			"content": "A",
			"source": "https://xmpp.net/result.php?domain=dismail.de&type=server",
			"comment": ""
		},
		"maximumHttpFileUploadFileSize": {
			"content": 100,
			"source": "https://dismail.de/info.html",
			"comment": ""
		},
		"maximumHttpFileUploadTotalSize": {
			"content": -1,
			"source": "",
			"comment": ""
		},
		"maximumHttpFileUploadStorageTime": {
			"content": 31,
			"source": "https://dismail.de/info.html",
			"comment": ""
		},
		"maximumMessageArchiveManagementStorageTime": {
			"content": 7,
			"source": "https://dismail.de/info.html",
			"comment": ""
		},
		"professionalHosting": {
			"content": true,
			"source": "https://dismail.de/info.html",
			"comment": ""
		},
		"freeOfCharge": {
			"content": true,
			"source": "https://dismail.de/faq.html",
			"comment": ""
		},
		"legalNotice": {
			"content": {
				"de": "https://dismail.de/impressum.html"
			},
			"comment": ""
		},
		"serverLocations": {
			"content": [
				"de"
			],
			"source": "https://dismail.de",
			"comment": ""
		},
		"groupChatSupport": {
			"en": {
				"content": [
					"support@rooms.dismail.de"
				],
				"source": "https://dismail.de/faq.html",
				"comment": ""
			}
		},
		"chatSupport": {
			"en": {
				"content": [
					"support@dismail.de"
				],
				"source": "https://dismail.de/contact.html",
				"comment": ""
			}
		},
		"emailSupport": {
			"en": {
				"content": [
					"support@dismail.de"
				],
				"source": "https://dismail.de/contact.html",
				"comment": ""
			}
		},
		"onlineSince": {
			"content": "2015-10-29",
			"source": "https://dismail.de/donate.html",
			"comment": ""
		}
	},
	"disroot.org": {
		"lastCheck": {
			"content": "2021-07-23",
			"comment": ""
		},
		"website": {
			"content": {
				"de": "https://disroot.org/de/services/xmpp",
				"en": "https://disroot.org/en/services/xmpp",
				"es": "https://disroot.org/es/services/xmpp",
				"fr": "https://disroot.org/fr/services/xmpp",
				"it": "https://disroot.org/it/services/xmpp"
			},
			"comment": "it: not everything translated; ru: nothing translated, thus not included"
		},
		"busFactor": {
			"content": -1,
			"source": "",
			"comment": ""
		},
		"company": {
			"content": false,
			"source": "https://disroot.org/en/about",
			"comment": ""
		},
		"passwordReset": {
			"content": {
				"en": "https://user.disroot.org/pwm/public/forgottenpassword"
			},
			"comment": ""
		},
		"inBandRegistration": {
			"content": false,
			"source": "Tested with Kaidan",
			"comment": ""
		},
		"registrationWebPage": {
			"content": {
				"en": "https://user.disroot.org/pwm/public/newuser"
			},
			"comment": ""
		},
		"ratingXmppComplianceTester": {
			"content": 95,
			"source": "https://compliance.conversations.im/server/disroot.org/",
			"comment": ""
		},
		"ratingImObservatoryClientToServer": {
			"content": "A",
			"source": "https://xmpp.net/result.php?domain=disroot.org&type=client",
			"comment": ""
		},
		"ratingImObservatoryServerToServer": {
			"content": "A",
			"source": "https://xmpp.net/result.php?domain=disroot.org&type=server",
			"comment": ""
		},
		"maximumHttpFileUploadFileSize": {
			"content": 10,
			"source": "https://disroot.org/en/services/xmpp",
			"comment": ""
		},
		"maximumHttpFileUploadTotalSize": {
			"content": -1,
			"source": "",
			"comment": ""
		},
		"maximumHttpFileUploadStorageTime": {
			"content": 90,
			"source": "https://disroot.org/en/privacy_policy",
			"comment": "3 months"
		},
		"maximumMessageArchiveManagementStorageTime": {
			"content": -1,
			"source": "",
			"comment": "https://disroot.org/en/services/xmpp states 6 month but https://disroot.org/en/privacy_policy 1 month"
		},
		"professionalHosting": {
			"content": true,
			"source": "https://disroot.org/en/about",
			"comment": "name or link to hosting company could be provided"
		},
		"freeOfCharge": {
			"content": true,
			"source": "https://disroot.org/en",
			"comment": ""
		},
		"legalNotice": {
			"content": {
				"en": "https://disroot.org/en/tos"
			},
			"comment": "other language versions available but only title translated"
		},
		"serverLocations": {
			"content": [
				"nl"
			],
			"source": "https://disroot.org/en/tos",
			"comment": ""
		},
		"groupChatSupport": {
			"de": {
				"content": [
					"disroot@chat.disroot.org"
				],
				"source": "https://disroot.org/de/contact",
				"comment": ""
			},
			"en": {
				"content": [
					"disroot@chat.disroot.org"
				],
				"source": "https://disroot.org/en/contact",
				"comment": ""
			},
			"es": {
				"content": [
					"disroot@chat.disroot.org"
				],
				"source": "https://disroot.org/es/contact",
				"comment": ""
			},
			"fr": {
				"content": [
					"disroot@chat.disroot.org"
				],
				"source": "https://disroot.org/fr/contact",
				"comment": ""
			},
			"it": {
				"content": [
					"disroot@chat.disroot.org"
				],
				"source": "https://disroot.org/it/contact",
				"comment": ""
			},
			"ru": {
				"content": [
					"disroot@chat.disroot.org"
				],
				"source": "https://disroot.org/ru/contact",
				"comment": ""
			}
		},
		"chatSupport": {},
		"emailSupport": {
			"de": {
				"content": [
					"support@disroot.org"
				],
				"source": "https://disroot.org/de/contact",
				"comment": ""
			},
			"en": {
				"content": [
					"support@disroot.org"
				],
				"source": "https://disroot.org/en/contact",
				"comment": ""
			},
			"es": {
				"content": [
					"support@disroot.org"
				],
				"source": "https://disroot.org/es/contact",
				"comment": ""
			},
			"fr": {
				"content": [
					"support@disroot.org"
				],
				"source": "https://disroot.org/fr/contact",
				"comment": ""
			},
			"it": {
				"content": [
					"support@disroot.org"
				],
				"source": "https://disroot.org/it/contact",
				"comment": ""
			},
			"ru": {
				"content": [
					"support@disroot.org"
				],
				"source": "https://disroot.org/ru/contact",
				"comment": ""
			}
		},
		"onlineSince": {
			"content": "2015-04-08",
			"source": "https://disroot.org/en/blog/disroot-is-live",
			"comment": ""
		}
	},
	"draugr.de": {
		"lastCheck": {
			"content": "2021-02-07",
			"comment": ""
		},
		"website": {
			"content": {
				"en": "https://www.draugr.de"
			},
			"comment": ""
		},
		"busFactor": {
			"content": -1,
			"source": "",
			"comment": ""
		},
		"company": {
			"content": false,
			"source": "https://www.draugr.de/impressum",
			"comment": ""
		},
		"passwordReset": {
			"content": {},
			"source": "https://www.draugr.de",
			"comment": ""
		},
		"inBandRegistration": {
			"content": false,
			"source": "Tested with Kaidan",
			"comment": "Is enabled but CAPTCHAs are too complicated"
		},
		"registrationWebPage": {
			"content": {},
			"source": "https://account.draugr.de",
			"comment": "Web registration is deactivated"
		},
		"ratingXmppComplianceTester": {
			"content": 100,
			"source": "https://compliance.conversations.im/server/draugr.de",
			"comment": ""
		},
		"ratingImObservatoryClientToServer": {
			"content": "A",
			"source": "https://xmpp.net/result.php?domain=draugr.de&type=client",
			"comment": ""
		},
		"ratingImObservatoryServerToServer": {
			"content": "A",
			"source": "https://xmpp.net/result.php?domain=draugr.de&type=server",
			"comment": ""
		},
		"maximumHttpFileUploadFileSize": {
			"content": -1,
			"source": "",
			"comment": ""
		},
		"maximumHttpFileUploadTotalSize": {
			"content": -1,
			"source": "",
			"comment": ""
		},
		"maximumHttpFileUploadStorageTime": {
			"content": -1,
			"source": "",
			"comment": ""
		},
		"maximumMessageArchiveManagementStorageTime": {
			"content": 21,
			"source": "https://www.draugr.de/datenschutz",
			"comment": ""
		},
		"professionalHosting": {
			"content": false,
			"source": "",
			"comment": ""
		},
		"freeOfCharge": {
			"content": true,
			"source": "https://www.draugr.de/nutzungsbedingungen",
			"comment": ""
		},
		"legalNotice": {
			"content": {
				"de": "https://www.draugr.de/nutzungsbedingungen"
			},
			"comment": ""
		},
		"serverLocations": {
			"content": [
				"de"
			],
			"source": "https://www.draugr.de/nutzungsbedingungen",
			"comment": ""
		},
		"groupChatSupport": {},
		"chatSupport": {
			"de": {
				"content": [],
				"source": "https://www.draugr.de/impressum/",
				"comment": "christian@draugr.de: Admin does not respond"
			}
		},
		"emailSupport": {
			"de": {
				"content": [],
				"source": "https://www.draugr.de/impressum/",
				"comment": "christian@draugr.de: Admin does not respond"
			}
		},
		"onlineSince": {
			"content": "2005-11-21",
			"source": "https://www.draugr.de/faq",
			"comment": ""
		}
	},
	"hookipa.net": {
		"lastCheck": {
			"content": "2021-07-05",
			"comment": ""
		},
		"website": {
			"content": {
				"de": "https://hookipa.net",
				"en": "https://hookipa.net/en/front-page/"
			},
			"comment": ""
		},
		"busFactor": {
			"content": 1,
			"source": "https://hookipa.net/en/documentation/",
			"comment": ""
		},
		"company": {
			"content": false,
			"source": "https://hookipa.net/impressum/",
			"comment": ""
		},
		"passwordReset": {
			"content": {},
			"source": "",
			"comment": ""
		},
		"inBandRegistration": {
			"content": true,
			"source": "Tested with Kaidan",
			"comment": ""
		},
		"registrationWebPage": {
			"content": {
				"en": "https://hookipa.net/register/new"
			},
			"comment": ""
		},
		"ratingXmppComplianceTester": {
			"content": 100,
			"source": "https://compliance.conversations.im/server/hookipa.net/",
			"comment": ""
		},
		"ratingImObservatoryClientToServer": {
			"content": "A",
			"source": "https://xmpp.net/result.php?domain=hookipa.net&type=client",
			"comment": ""
		},
		"ratingImObservatoryServerToServer": {
			"content": "A",
			"source": "https://xmpp.net/result.php?domain=hookipa.net&type=server",
			"comment": ""
		},
		"maximumHttpFileUploadFileSize": {
			"content": 100,
			"source": "https://hookipa.net/en/documentation/",
			"comment": ""
		},
		"maximumHttpFileUploadTotalSize": {
			"content": 0,
			"source": "https://hookipa.net/en/documentation/",
			"comment": ""
		},
		"maximumHttpFileUploadStorageTime": {
			"content": 30,
			"source": "https://hookipa.net/en/documentation/",
			"comment": ""
		},
		"maximumMessageArchiveManagementStorageTime": {
			"content": 365,
			"source": "https://hookipa.net/en/documentation/",
			"comment": ""
		},
		"professionalHosting": {
			"content": true,
			"source": "https://hookipa.net/en/documentation/",
			"comment": ""
		},
		"freeOfCharge": {
			"content": true,
			"source": "https://hookipa.net/en/privacy-policy/",
			"comment": ""
		},
		"legalNotice": {
			"content": {
				"de": "https://hookipa.net/impressum/"
			},
			"comment": ""
		},
		"serverLocations": {
			"content": [
				"de"
			],
			"source": "https://hookipa.net/en/privacy-policy/",
			"comment": ""
		},
		"groupChatSupport": {
			"de": {
				"content": [
					"support@chat.hookipa.net"
				],
				"source": "https://hookipa.net",
				"comment": ""
			},
			"en": {
				"content": [
					"support@chat.hookipa.net"
				],
				"source": "https://hookipa.net/en/front-page/",
				"comment": ""
			}
		},
		"chatSupport": {},
		"emailSupport": {},
		"onlineSince": {
			"content": "2008-05-28",
			"source": "https://hookipa.net/en/documentation/server-history/",
			"comment": ""
		}
	},
	"jabber.de": {
		"lastCheck": {
			"content": "2021-11-14",
			"comment": ""
		},
		"website": {
			"content": {
				"de": "https://www.jabber.de"
			},
			"comment": ""
		},
		"busFactor": {
			"content": -1,
			"source": "",
			"comment": ""
		},
		"company": {
			"content": false,
			"source": "https://www.jabber.de/impressum/",
			"comment": ""
		},
		"passwordReset": {
			"content": {
				"de": "https://www.jabber.de/support/"
			},
			"comment": ""
		},
		"inBandRegistration": {
			"content": true,
			"source": "Tested with Kaidan",
			"comment": ""
		},
		"registrationWebPage": {
			"content": {
				"de": "https://www.jabber.de/anmeldung/"
			},
			"comment": ""
		},
		"ratingXmppComplianceTester": {
			"content": 100,
			"source": "https://compliance.conversations.im/server/jabber.de/",
			"comment": ""
		},
		"ratingImObservatoryClientToServer": {
			"content": "A",
			"source": "https://xmpp.net/result.php?domain=jabber.de&type=client",
			"comment": ""
		},
		"ratingImObservatoryServerToServer": {
			"content": "A",
			"source": "https://xmpp.net/result.php?domain=jabber.de&type=server",
			"comment": ""
		},
		"maximumHttpFileUploadFileSize": {
			"content": 10,
			"source": "https://www.jabber.de/server-info/",
			"comment": "Prosody's internal HTTP server cannot handle more than 10 MB; Admin must set up external HTTP server"
		},
		"maximumHttpFileUploadTotalSize": {
			"content": 2000,
			"source": "https://www.jabber.de/server-info/",
			"comment": ""
		},
		"maximumHttpFileUploadStorageTime": {
			"content": 7,
			"source": "https://www.jabber.de/server-info/",
			"comment": ""
		},
		"maximumMessageArchiveManagementStorageTime": {
			"content": 14,
			"source": "https://www.jabber.de/server-info/",
			"comment": ""
		},
		"professionalHosting": {
			"content": true,
			"source": "https://www.jabber.de/server-info/",
			"comment": ""
		},
		"freeOfCharge": {
			"content": true,
			"source": "https://www.jabber.de/server-info/",
			"comment": ""
		},
		"legalNotice": {
			"content": {
				"de": "https://www.jabber.de/impressum/"
			},
			"comment": ""
		},
		"serverLocations": {
			"content": [
				"de"
			],
			"source": "https://www.jabber.de/server-info/",
			"comment": ""
		},
		"groupChatSupport": {
			"de": {
				"content": [
					"support@conference.jabber.de"
				],
				"source": "https://www.jabber.de/support/",
				"comment": ""
			}
		},
		"chatSupport": {},
		"emailSupport": {
			"de": {
				"content": [
					"webmaster@jabber.de"
				],
				"source": "https://www.jabber.de/impressum/",
				"comment": ""
			}
		},
		"onlineSince": {
			"content": "2012-02-16",
			"source": "https://www.jabber.de/hallo-welt/",
			"comment": ""
		}
	},
	"jabber.fr": {
		"lastCheck": {
			"content": "2021-03-08",
			"comment": ""
		},
		"website": {
			"content": {
				"fr": "https://jabberfr.org"
			},
			"comment": "jabber.fr is used for public registration, jabberfr.org for members and remaining structure"
		},
		"busFactor": {
			"content": -1,
			"source": "",
			"comment": ""
		},
		"company": {
			"content": false,
			"source": "https://wiki.jabberfr.org/CGU",
			"comment": ""
		},
		"passwordReset": {
			"content": {},
			"comment": ""
		},
		"inBandRegistration": {
			"content": true,
			"source": "",
			"comment": "Tested with Kaidan"
		},
		"registrationWebPage": {
			"content": {},
			"comment": ""
		},
		"ratingXmppComplianceTester": {
			"content": 95,
			"source": "https://compliance.conversations.im/server/jabber.fr/",
			"comment": ""
		},
		"ratingImObservatoryClientToServer": {
			"content": "A",
			"source": "https://xmpp.net/result.php?domain=jabber.fr&type=client",
			"comment": ""
		},
		"ratingImObservatoryServerToServer": {
			"content": "A",
			"source": "https://xmpp.net/result.php?domain=jabber.fr&type=server",
			"comment": ""
		},
		"maximumHttpFileUploadFileSize": {
			"content": 10,
			"source": "https://wiki.jabberfr.org/JabberFR#Quelles_sont_les_caract.C3.A9ristiques_du_service_pour_les_utilisateurs_.3F",
			"comment": ""
		},
		"maximumHttpFileUploadTotalSize": {
			"content": 0,
			"source": "https://wiki.jabberfr.org/JabberFR#Quelles_sont_les_caract.C3.A9ristiques_du_service_pour_les_utilisateurs_.3F",
			"comment": ""
		},
		"maximumHttpFileUploadStorageTime": {
			"content": 0,
			"source": "https://wiki.jabberfr.org/JabberFR#Quelles_sont_les_caract.C3.A9ristiques_du_service_pour_les_utilisateurs_.3F",
			"comment": ""
		},
		"maximumMessageArchiveManagementStorageTime": {
			"content": 14,
			"source": "https://wiki.jabberfr.org/JabberFR#Quelles_sont_les_caract.C3.A9ristiques_du_service_pour_les_utilisateurs_.3F",
			"comment": ""
		},
		"professionalHosting": {
			"content": true,
			"source": "https://wiki.jabberfr.org/JabberFR#Quelles_sont_les_caract.C3.A9ristiques_du_service_pour_les_utilisateurs_.3F",
			"comment": ""
		},
		"freeOfCharge": {
			"content": true,
			"source": "https://wiki.jabberfr.org/CGU",
			"comment": ""
		},
		"legalNotice": {
			"content": {
				"fr": "https://wiki.jabberfr.org/CGU"
			},
			"comment": ""
		},
		"serverLocations": {
			"content": [
				"fr"
			],
			"source": "https://wiki.jabberfr.org/JabberFR#Quelles_sont_les_caract.C3.A9ristiques_du_service_pour_les_utilisateurs_.3F",
			"comment": ""
		},
		"groupChatSupport": {
			"fr": {
				"content": [
					"jabberfr@chat.jabberfr.org"
				],
				"comment": "",
				"source": "https://jabberfr.org/contact/"
			}
		},
		"chatSupport": {
			"fr": {
				"content": [
					"linkmauve@linkmauve.fr",
					"mathieui@mathieui.net"
				],
				"comment": "",
				"source": "https://jabberfr.org/contact/"
			}
		},
		"emailSupport": {
			"fr": {
				"content": [
					"admins@jabberfr.org"
				],
				"comment": "",
				"source": "https://jabberfr.org/contact/"
			}
		},
		"onlineSince": {
			"content": "2003-10-08",
			"source": "https://web.archive.org/web/20031008084307/http://jabberfr.org/",
			"comment": ""
		}
	},
	"jabber.hot-chilli.net": {
		"lastCheck": {
			"content": "2021-04-03",
			"comment": ""
		},
		"website": {
			"content": {
				"de": "https://jabber.hot-chilli.net/de/",
				"en": "https://jabber.hot-chilli.net"
			},
			"comment": ""
		},
		"busFactor": {
			"content": -1,
			"source": "",
			"comment": ""
		},
		"company": {
			"content": true,
			"source": "https://jabber.hot-chilli.net/legal/",
			"comment": ""
		},
		"passwordReset": {
			"content": {
				"en": "https://jabber.hot-chilli.net/forms/resetpw/"
			},
			"comment": ""
		},
		"inBandRegistration": {
			"content": false,
			"source": "",
			"comment": "Tested with Kaidan"
		},
		"registrationWebPage": {
			"content": {
				"en": "https://jabber.hot-chilli.net/forms/create/"
			},
			"comment": ""
		},
		"ratingXmppComplianceTester": {
			"content": 100,
			"source": "https://compliance.conversations.im/server/jabber.hot-chilli.net/",
			"comment": ""
		},
		"ratingImObservatoryClientToServer": {
			"content": "A",
			"source": "https://xmpp.net/result.php?domain=jabber.hot-chilli.net&type=client",
			"comment": ""
		},
		"ratingImObservatoryServerToServer": {
			"content": "A",
			"source": "https://xmpp.net/result.php?domain=jabber.hot-chilli.net&type=server",
			"comment": ""
		},
		"maximumHttpFileUploadFileSize": {
			"content": 512,
			"source": "https://jabber.hot-chilli.net/server-specifications/#Limits",
			"comment": ""
		},
		"maximumHttpFileUploadTotalSize": {
			"content": 1000,
			"source": "https://jabber.hot-chilli.net/server-specifications/#Limits",
			"comment": ""
		},
		"maximumHttpFileUploadStorageTime": {
			"content": 31,
			"source": "https://jabber.hot-chilli.net/server-specifications/#Limits",
			"comment": ""
		},
		"maximumMessageArchiveManagementStorageTime": {
			"content": 31,
			"source": "https://jabber.hot-chilli.net/server-specifications/#Limits",
			"comment": ""
		},
		"professionalHosting": {
			"content": true,
			"source": "https://jabber.hot-chilli.net/server-specifications/#Server_hardware_and_server_location",
			"comment": ""
		},
		"freeOfCharge": {
			"content": true,
			"source": "https://jabber.hot-chilli.net",
			"comment": ""
		},
		"legalNotice": {
			"content": {
				"de": "https://jabber.hot-chilli.net/de/impressum/",
				"en": "https://jabber.hot-chilli.net/legal/"
			},
			"comment": ""
		},
		"serverLocations": {
			"content": [
				"de"
			],
			"source": "https://jabber.hot-chilli.net/server-specifications/#Server_hardware_and_server_location",
			"comment": ""
		},
		"groupChatSupport": {
			"de": {
				"content": [
					"support@conference.jabber.hot-chilli.net"
				],
				"source": "https://jabber.hot-chilli.net/de/",
				"comment": ""
			},
			"en": {
				"content": [
					"support@conference.jabber.hot-chilli.net"
				],
				"source": "https://jabber.hot-chilli.net",
				"comment": ""
			}
		},
		"chatSupport": {
			"de": {
				"content": [
					"roi@jabber.hot-chilli.net",
					"beorn@jabber.hot-chilli.net"
				],
				"source": "https://jabber.hot-chilli.net/de/",
				"comment": ""
			},
			"en": {
				"content": [
					"roi@jabber.hot-chilli.net",
					"beorn@jabber.hot-chilli.net"
				],
				"source": "https://jabber.hot-chilli.net",
				"comment": ""
			}
		},
		"emailSupport": {},
		"onlineSince": {
			"content": "2005-03-19",
			"source": "https://jabber.hot-chilli.net/2005/03/19/jabber-server-up-and-running/",
			"comment": ""
		}
	},
	"jabbers.one": {
		"lastCheck": {
			"content": "2021-10-08",
			"comment": ""
		},
		"website": {
			"content": {
				"de": "https://jabbers.one/de/",
				"en": "https://jabbers.one/en/"
			},
			"comment": ""
		},
		"busFactor": {
			"content": -1,
			"source": "",
			"comment": ""
		},
		"company": {
			"content": false,
			"source": "https://jabbers.one/en/site_notice.php",
			"comment": ""
		},
		"passwordReset": {
			"content": {},
			"source": "https://jabbers.one/en/faq.php",
			"comment": ""
		},
		"inBandRegistration": {
			"content": true,
			"source": "Tested with Kaidan",
			"comment": ""
		},
		"registrationWebPage": {
			"content": {
				"de": "https://jabbers.one/de/registrieren.php",
				"en": "https://jabbers.one/en/register.php"
			},
			"comment": ""
		},
		"ratingXmppComplianceTester": {
			"content": 100,
			"source": "https://compliance.conversations.im/server/jabbers.one/",
			"comment": ""
		},
		"ratingImObservatoryClientToServer": {
			"content": "A",
			"source": "https://xmpp.net/result.php?domain=jabbers.one&type=client",
			"comment": ""
		},
		"ratingImObservatoryServerToServer": {
			"content": "A",
			"source": "https://xmpp.net/result.php?domain=jabbers.one&type=server",
			"comment": ""
		},
		"maximumHttpFileUploadFileSize": {
			"content": 50,
			"source": "https://jabbers.one/en/",
			"comment": ""
		},
		"maximumHttpFileUploadTotalSize": {
			"content": 200,
			"source": "https://jabbers.one/en/",
			"comment": ""
		},
		"maximumHttpFileUploadStorageTime": {
			"content": 10,
			"source": "https://jabbers.one/en/",
			"comment": ""
		},
		"maximumMessageArchiveManagementStorageTime": {
			"content": 30,
			"source": "https://jabbers.one/en/",
			"comment": ""
		},
		"professionalHosting": {
			"content": true,
			"source": "https://jabbers.one/en/faq.php",
			"comment": ""
		},
		"freeOfCharge": {
			"content": true,
			"source": "https://jabbers.one/en/faq.php",
			"comment": ""
		},
		"legalNotice": {
			"content": {
				"de": "https://www.jabbers.one/de/impressum.php",
				"en": "https://www.jabbers.one/en/site_notice.php"
			},
			"comment": ""
		},
		"serverLocations": {
			"content": [
				"de"
			],
			"source": "https://jabbers.one/en/",
			"comment": ""
		},
		"groupChatSupport": {
			"de": {
				"content": [
					"support@conference.jabbers.one"
				],
				"source": "https://jabbers.one/de/",
				"comment": ""
			},
			"en": {
				"content": [
					"support@conference.jabbers.one"
				],
				"source": "https://jabbers.one/en/",
				"comment": ""
			}
		},
		"chatSupport": {},
		"emailSupport": {
			"de": {
				"content": [
					"info@jabbers.one"
				],
				"source": "https://jabbers.one/de/impressum.php",
				"comment": ""
			},
			"en": {
				"content": [
					"info@jabbers.one"
				],
				"source": "https://www.jabbers.one/en/site_notice.php",
				"comment": ""
			}
		},
		"onlineSince": {
			"content": "2014-04-28",
			"source": "https://jabbers.one/en/news.php",
			"comment": ""
		}
	},
	"lightwitch.org": {
		"lastCheck": {
			"content": "2021-04-18",
			"comment": ""
		},
		"website": {
			"content": {
				"en": "https://lightwitch.org"
			},
			"comment": ""
		},
		"busFactor": {
			"content": -1,
			"source": "",
			"comment": ""
		},
		"company": {
			"content": false,
			"source": "https://lightwitch.org/im-service",
			"comment": ""
		},
		"passwordReset": {
			"content": {
				"en": "https://lightwitch.org/xmpp/password"
			},
			"comment": ""
		},
		"inBandRegistration": {
			"content": true,
			"source": "Tested with Kaidan",
			"comment": ""
		},
		"registrationWebPage": {
			"content": {
				"en": "https://lightwitch.org/xmpp/register"
			},
			"comment": ""
		},
		"ratingXmppComplianceTester": {
			"content": 100,
			"source": "https://compliance.conversations.im/server/lightwitch.org/",
			"comment": ""
		},
		"ratingImObservatoryClientToServer": {
			"content": "A",
			"source": "https://xmpp.net/result.php?domain=lightwitch.org&type=client",
			"comment": ""
		},
		"ratingImObservatoryServerToServer": {
			"content": "A",
			"source": "https://xmpp.net/result.php?domain=lightwitch.org&type=server",
			"comment": ""
		},
		"maximumHttpFileUploadFileSize": {
			"content": 1024,
			"source": "https://lightwitch.org/im-service",
			"comment": ""
		},
		"maximumHttpFileUploadTotalSize": {
			"content": 0,
			"source": "https://lightwitch.org/im-service",
			"comment": ""
		},
		"maximumHttpFileUploadStorageTime": {
			"content": 7,
			"source": "https://lightwitch.org/im-service",
			"comment": ""
		},
		"maximumMessageArchiveManagementStorageTime": {
			"content": 30,
			"source": "https://lightwitch.org/im-service",
			"comment": "Service stores up to 23000 messages for users through MAM"
		},
		"professionalHosting": {
			"content": true,
			"source": "https://lightwitch.org/im-service",
			"comment": ""
		},
		"freeOfCharge": {
			"content": true,
			"source": "https://lightwitch.org/im-service/tos",
			"comment": ""
		},
		"legalNotice": {
			"content": {
				"en": "https://lightwitch.org/im-service/tos"
			},
			"comment": ""
		},
		"serverLocations": {
			"content": [
				"it",
				"us"
			],
			"source": "https://lightwitch.org/im-service",
			"comment": "HTTP File Upload via Italy"
		},
		"groupChatSupport": {
			"en": {
				"content": [
					"support@conference.lightwitch.org"
				],
				"source": "https://lightwitch.org/im-service/support",
				"comment": ""
			}
		},
		"chatSupport": {},
		"emailSupport": {},
		"onlineSince": {
			"content": "2017-11-03",
			"source": "https://lightwitch.org/blogger/fixed-xmpp-registration-form",
			"comment": ""
		}
	},
	"macaw.me": {
		"lastCheck": {
			"content": "2021-07-05",
			"comment": ""
		},
		"website": {
			"content": {
				"en": "https://macaw.me"
			},
			"comment": ""
		},
		"busFactor": {
			"content": -1,
			"source": "",
			"comment": ""
		},
		"company": {
			"content": false,
			"source": "https://macaw.me/about.html",
			"comment": ""
		},
		"passwordReset": {
			"content": {
				"en": "https://macaw.me/services/xmpp.html"
			},
			"comment": "Manual reset via email"
		},
		"inBandRegistration": {
			"content": true,
			"source": "Tested with Kaidan",
			"comment": ""
		},
		"registrationWebPage": {
			"content": {},
			"source": "https://macaw.me/services/xmpp.html",
			"comment": ""
		},
		"ratingXmppComplianceTester": {
			"content": 100,
			"source": "https://compliance.conversations.im/server/macaw.me/",
			"comment": ""
		},
		"ratingImObservatoryClientToServer": {
			"content": "A",
			"source": "https://xmpp.net/result.php?domain=macaw.me&type=client",
			"comment": ""
		},
		"ratingImObservatoryServerToServer": {
			"content": "A",
			"source": "https://xmpp.net/result.php?domain=macaw.me&type=server",
			"comment": ""
		},
		"maximumHttpFileUploadFileSize": {
			"content": 100,
			"source": "https://macaw.me/services/xmpp.html",
			"comment": ""
		},
		"maximumHttpFileUploadTotalSize": {
			"content": 0,
			"source": "https://macaw.me/services/xmpp.html",
			"comment": ""
		},
		"maximumHttpFileUploadStorageTime": {
			"content": 31,
			"source": "https://macaw.me/services/xmpp.html",
			"comment": ""
		},
		"maximumMessageArchiveManagementStorageTime": {
			"content": 31,
			"source": "https://macaw.me/services/xmpp.html",
			"comment": ""
		},
		"professionalHosting": {
			"content": true,
			"source": "https://macaw.me/services/xmpp.html",
			"comment": ""
		},
		"freeOfCharge": {
			"content": true,
			"source": "https://macaw.me/services/xmpp.html",
			"comment": ""
		},
		"legalNotice": {
			"content": {},
			"comment": ""
		},
		"serverLocations": {
			"content": [
				"us"
			],
			"source": "https://macaw.me/services/xmpp.html",
			"comment": ""
		},
		"groupChatSupport": {
			"ru": {
				"content": [
					"support@conference.macaw.me"
				],
				"source": "https://macaw.me/services/xmpp.html",
				"comment": ""
			},
			"en": {
				"content": [
					"support@conference.macaw.me"
				],
				"source": "https://macaw.me/services/xmpp.html",
				"comment": ""
			}
		},
		"chatSupport": {
			"ru": {
				"content": [
					"administrator@macaw.me"
				],
				"source": "https://macaw.me/contact.html",
				"comment": ""
			},
			"en": {
				"content": [
					"administrator@macaw.me"
				],
				"source": "https://macaw.me/contact.html",
				"comment": ""
			}
		},
		"emailSupport": {
			"ru": {
				"content": [
					"administrator@macaw.me"
				],
				"source": "https://macaw.me/contact.html",
				"comment": ""
			},
			"en": {
				"content": [
					"administrator@macaw.me"
				],
				"source": "https://macaw.me/contact.html",
				"comment": ""
			}
		},
		"onlineSince": {
			"content": "2019-03-14",
			"source": "https://macaw.me/services/xmpp.html",
			"comment": ""
		}
	},
	"magicbroccoli.de": {
		"lastCheck": {
			"content": "2021-04-02",
			"comment": ""
		},
		"website": {
			"content": {
				"en": "https://magicbroccoli.de"
			},
			"comment": ""
		},
		"busFactor": {
			"content": -1,
			"source": "",
			"comment": ""
		},
		"company": {
			"content": false,
			"source": "https://magicbroccoli.de/aboutme/",
			"comment": ""
		},
		"passwordReset": {
			"content": {
				"en": "https://magicbroccoli.de/register/"
			},
			"comment": ""
		},
		"inBandRegistration": {
			"content": true,
			"source": "",
			"comment": "Tested with Kaidan"
		},
		"registrationWebPage": {
			"content": {
				"en": "https://magicbroccoli.de/register/"
			},
			"comment": ""
		},
		"ratingXmppComplianceTester": {
			"content": 100,
			"source": "https://compliance.conversations.im/server/magicbroccoli.de/",
			"comment": ""
		},
		"ratingImObservatoryClientToServer": {
			"content": "A",
			"source": "https://xmpp.net/result.php?domain=magicbroccoli.de&type=client",
			"comment": ""
		},
		"ratingImObservatoryServerToServer": {
			"content": "A",
			"source": "https://xmpp.net/result.php?domain=magicbroccoli.de&type=server",
			"comment": ""
		},
		"maximumHttpFileUploadFileSize": {
			"content": 30,
			"source": "https://magicbroccoli.de/technik/",
			"comment": ""
		},
		"maximumHttpFileUploadTotalSize": {
			"content": 0,
			"source": "https://magicbroccoli.de/technik/",
			"comment": ""
		},
		"maximumHttpFileUploadStorageTime": {
			"content": 30,
			"source": "https://magicbroccoli.de/technik/",
			"comment": ""
		},
		"maximumMessageArchiveManagementStorageTime": {
			"content": 90,
			"source": "https://magicbroccoli.de/technik/",
			"comment": ""
		},
		"professionalHosting": {
			"content": true,
			"source": "https://magicbroccoli.de/technik/",
			"comment": ""
		},
		"freeOfCharge": {
			"content": true,
			"source": "https://magicbroccoli.de/donate/",
			"comment": ""
		},
		"legalNotice": {
			"content": {
				"de": "https://magicbroccoli.de/datenschutz/"
			},
			"comment": ""
		},
		"serverLocations": {
			"content": [
				"de"
			],
			"source": "TODO: Insert",
			"comment": ""
		},
		"groupChatSupport": {
			"de": {
				"content": [
					"lobby@conference.magicbroccoli.de"
				],
				"source": "https://magicbroccoli.de/aboutme/",
				"comment": ""
			},
			"en": {
				"content": [
					"lobby@conference.magicbroccoli.de"
				],
				"source": "https://magicbroccoli.de/aboutme/",
				"comment": ""
			}
		},
		"chatSupport": {
			"de": {
				"content": [
					"broccoli@magicbroccoli.de"
				],
				"source": "https://magicbroccoli.de/aboutme/",
				"comment": ""
			},
			"en": {
				"content": [
					"broccoli@magicbroccoli.de"
				],
				"source": "https://magicbroccoli.de/aboutme/",
				"comment": ""
			}
		},
		"emailSupport": {
			"de": {
				"content": [
					"nico@magicbroccoli.de"
				],
				"source": "https://magicbroccoli.de/aboutme/",
				"comment": ""
			},
			"en": {
				"content": [
					"nico@magicbroccoli.de"
				],
				"source": "https://magicbroccoli.de/aboutme/",
				"comment": ""
			}
		},
		"onlineSince": {
			"content": "2017-06-20",
			"source": "https://magicbroccoli.de/post/first-post/",
			"comment": ""
		}
	},
	"nixnet.services": {
		"lastCheck": {
			"content": "2021-10-23",
			"comment": ""
		},
		"website": {
			"content": {
				"en": "https://docs.nixnet.services/XMPP"
			},
			"comment": ""
		},
		"busFactor": {
			"content": 4,
			"source": "https://nixnet.services/about/",
			"comment": ""
		},
		"company": {
			"content": false,
			"source": "https://nixnet.services",
			"comment": ""
		},
		"passwordReset": {
			"content": {},
			"source": "https://docs.nixnet.services/XMPP#Account_management",
			"comment": ""
		},
		"inBandRegistration": {
			"content": true,
			"source": "https://docs.nixnet.services/XMPP",
			"comment": "Tested with Kaidan"
		},
		"registrationWebPage": {
			"content": {
				"en": "https://xmpp.nixnet.services/new/"
			},
			"comment": ""
		},
		"ratingXmppComplianceTester": {
			"content": 100,
			"source": "https://compliance.conversations.im/server/nixnet.services/",
			"comment": ""
		},
		"ratingImObservatoryClientToServer": {
			"content": "A",
			"source": "https://xmpp.net/result.php?domain=nixnet.services&type=client",
			"comment": "Rating is currently wrongly 'T' because of https://github.com/xmpp-observatory/xmppoke/issues/10"
		},
		"ratingImObservatoryServerToServer": {
			"content": "A",
			"source": "https://xmpp.net/result.php?domain=nixnet.services&type=server",
			"comment": "Rating is currently wrongly 'T' because of https://github.com/xmpp-observatory/xmppoke/issues/10"
		},
		"maximumHttpFileUploadFileSize": {
			"content": 100,
			"source": "https://docs.nixnet.services/XMPP",
			"comment": ""
		},
		"maximumHttpFileUploadTotalSize": {
			"content": 1000,
			"source": "https://docs.nixnet.services/XMPP",
			"comment": ""
		},
		"maximumHttpFileUploadStorageTime": {
			"content": 14,
			"source": "https://docs.nixnet.services/XMPP",
			"comment": ""
		},
		"maximumMessageArchiveManagementStorageTime": {
			"content": 0,
			"source": "https://docs.nixnet.services/XMPP",
			"comment": ""
		},
		"professionalHosting": {
			"content": true,
			"source": "https://nixnet.services/about/",
			"comment": ""
		},
		"freeOfCharge": {
			"content": true,
			"source": "https://nixnet.services",
			"comment": ""
		},
		"legalNotice": {
			"content": {
				"en": "https://docs.nixnet.services/XMPP/Terms"
			},
			"comment": ""
		},
		"serverLocations": {
			"content": [
				"fi"
			],
			"source": "https://nixnet.services/about/",
			"comment": ""
		},
		"groupChatSupport": {
			"en": {
				"content": [
					"nixnet@muc.nixnet.services"
				],
				"source": "https://docs.nixnet.services/XMPP#Support",
				"comment": ""
			}
		},
		"chatSupport": {
			"en": {
				"content": [
					"support@nixnet.services"
				],
				"source": "https://docs.nixnet.services/XMPP#Support",
				"comment": ""
			}
		},
		"emailSupport": {
			"en": {
				"content": [
					"support@nixnet.services",
					"amolith@nixnet.services"
				],
				"source": "https://nixnet.services/contact/",
				"comment": ""
			}
		},
		"onlineSince": {
			"content": "2019-01-08",
			"source": "https://git.nixnet.services/NixNet/NixNet/blame/commit/c1131b42b10c4e1633d825d96734bd4883563f65/jabber-xmpp/jabber-xmpp.md",
			"comment": ""
		}
	},
	"openim.de": {
		"lastCheck": {
			"content": "2021-04-05",
			"comment": ""
		},
		"website": {
			"content": {
				"de": "https://openim.de"
			},
			"comment": ""
		},
		"busFactor": {
			"content": -1,
			"source": "",
			"comment": ""
		},
		"company": {
			"content": false,
			"source": "https://openim.de/kontakt.html",
			"comment": ""
		},
		"passwordReset": {
			"content": {},
			"comment": ""
		},
		"inBandRegistration": {
			"content": true,
			"source": "Tested with Kaidan",
			"comment": ""
		},
		"registrationWebPage": {
			"content": {
				"de": "https://openim.de/register.html"
			},
			"comment": ""
		},
		"ratingXmppComplianceTester": {
			"content": 95,
			"source": "https://compliance.conversations.im/server/openim.de/",
			"comment": ""
		},
		"ratingImObservatoryClientToServer": {
			"content": "A",
			"source": "https://xmpp.net/result.php?domain=openim.de&type=client",
			"comment": ""
		},
		"ratingImObservatoryServerToServer": {
			"content": "A",
			"source": "https://xmpp.net/result.php?domain=openim.de&type=server",
			"comment": ""
		},
		"maximumHttpFileUploadFileSize": {
			"content": -1,
			"source": "",
			"comment": ""
		},
		"maximumHttpFileUploadTotalSize": {
			"content": -1,
			"source": "",
			"comment": ""
		},
		"maximumHttpFileUploadStorageTime": {
			"content": 7,
			"source": "https://openim.de/datenschutz.html",
			"comment": ""
		},
		"maximumMessageArchiveManagementStorageTime": {
			"content": 28,
			"source": "https://openim.de/datenschutz.html",
			"comment": ""
		},
		"professionalHosting": {
			"content": true,
			"source": "https://openim.de",
			"comment": ""
		},
		"freeOfCharge": {
			"content": true,
			"source": "https://openim.de/kontakt.html",
			"comment": ""
		},
		"legalNotice": {
			"content": {
				"de": "https://www.openim.de/datenschutz.html"
			},
			"comment": ""
		},
		"serverLocations": {
			"content": [
				"de"
			],
			"source": "https://openim.de",
			"comment": ""
		},
		"groupChatSupport": {
			"de": {
				"content": [
					"support@conference.jabber.de"
				],
				"source": "https://openim.de/kontakt.html",
				"comment": ""
			}
		},
		"chatSupport": {
			"de": {
				"content": [
					"sven@openim.de"
				],
				"source": "https://openim.de/kontakt.html",
				"comment": ""
			}
		},
		"emailSupport": {
			"de": {
				"content": [
					"support@openim.de"
				],
				"source": "https://openim.de/kontakt.html",
				"comment": ""
			}
		},
		"onlineSince": {
			"content": "2018-12-11",
			"source": "TODO: Insert",
			"comment": ""
		}
	},
	"sure.im": {
		"lastCheck": {
			"content": "2021-08-24",
			"comment": ""
		},
		"website": {
			"content": {
				"en": "https://sure.im"
			},
			"comment": ""
		},
		"company": {
			"content": true,
			"source": "https://sure.im/terms.txt",
			"comment": ""
		},
		"passwordReset": {
			"content": {
				"en": "https://sure.im/rest/user/resetPassword"
			},
			"comment": ""
		},
		"inBandRegistration": {
			"content": true,
			"source": "Tested with Kaidan",
			"comment": "Client must support XEP-0004: Data Forms and email verification is required"
		},
		"registrationWebPage": {
			"content": {},
			"comment": "https://sure.im provides a button for registration but it does not work"
		},
		"ratingXmppComplianceTester": {
			"content": 100,
			"source": "https://compliance.conversations.im/server/sure.im/",
			"comment": ""
		},
		"ratingImObservatoryClientToServer": {
			"content": "A",
			"source": "https://xmpp.net/result.php?domain=sure.im&type=client",
			"comment": ""
		},
		"ratingImObservatoryServerToServer": {
			"content": "A",
			"source": "https://xmpp.net/result.php?domain=sure.im&type=server",
			"comment": ""
		},
		"maximumHttpFileUploadFileSize": {
			"content": 20,
			"source": "https://info.tigase.im",
			"comment": ""
		},
		"maximumHttpFileUploadTotalSize": {
			"content": 0,
			"source": "https://info.tigase.im",
			"comment": ""
		},
		"maximumHttpFileUploadStorageTime": {
			"content": 365,
			"source": "https://info.tigase.im",
			"comment": ""
		},
		"maximumMessageArchiveManagementStorageTime": {
			"content": 365,
			"source": "https://info.tigase.im",
			"comment": ""
		},
		"professionalHosting": {
			"content": true,
			"source": "https://info.tigase.im",
			"comment": ""
		},
		"freeOfCharge": {
			"content": true,
			"source": "https://info.tigase.im",
			"comment": ""
		},
		"legalNotice": {
			"content": {
				"en": "https://sure.im/terms.txt"
			},
			"comment": ""
		},
		"serverLocations": {
			"content": [
				"us"
			],
			"source": "https://info.tigase.im",
			"comment": ""
		},
		"groupChatSupport": {
			"en": {
				"content": [
					"tigase@muc.tigase.org"
				],
				"source": "https://info.tigase.im",
				"comment": ""
			}
		},
		"chatSupport": {},
		"emailSupport": {},
		"onlineSince": {
			"content": "2009-12-31",
			"source": "https://info.tigase.im",
			"comment": ""
		}
	},
	"trashserver.net": {
		"lastCheck": {
			"content": "2021-03-29",
			"comment": ""
		},
		"website": {
			"content": {
				"de": "https://trashserver.net",
				"en": "https://trashserver.net/en"
			},
			"comment": ""
		},
		"busFactor": {
			"content": -1,
			"source": "",
			"comment": ""
		},
		"company": {
			"content": false,
			"source": "https://trashserver.net/impressum",
			"comment": ""
		},
		"passwordReset": {
			"content": {},
			"comment": ""
		},
		"inBandRegistration": {
			"content": true,
			"source": "Tested with Kaidan",
			"comment": ""
		},
		"registrationWebPage": {
			"content": {
				"de": "https://trashserver.net/registrieren",
				"en": "https://trashserver.net/en/register"
			},
			"comment": ""
		},
		"ratingXmppComplianceTester": {
			"content": 100,
			"source": "https://compliance.conversations.im/server/trashserver.net",
			"comment": ""
		},
		"ratingImObservatoryClientToServer": {
			"content": "A",
			"source": "https://xmpp.net/result.php?domain=trashserver.net&type=client",
			"comment": ""
		},
		"ratingImObservatoryServerToServer": {
			"content": "A",
			"source": "https://xmpp.net/result.php?domain=trashserver.net&type=server",
			"comment": ""
		},
		"maximumHttpFileUploadFileSize": {
			"content": 100,
			"source": "https://trashserver.net/technik",
			"comment": ""
		},
		"maximumHttpFileUploadTotalSize": {
			"content": -1,
			"source": "",
			"comment": ""
		},
		"maximumHttpFileUploadStorageTime": {
			"content": 28,
			"source": "https://trashserver.net/datenschutz/",
			"comment": ""
		},
		"maximumMessageArchiveManagementStorageTime": {
			"content": 28,
			"source": "https://trashserver.net/datenschutz",
			"comment": ""
		},
		"professionalHosting": {
			"content": true,
			"source": "https://trashserver.net/ueber-diesen-server/",
			"comment": ""
		},
		"freeOfCharge": {
			"content": true,
			"source": "https://trashserver.net/unterstuetzen",
			"comment": ""
		},
		"legalNotice": {
			"content": {
				"de": "https://trashserver.net/datenschutz",
				"en": "https://trashserver.net/en/privacy"
			},
			"comment": ""
		},
		"serverLocations": {
			"content": [
				"de"
			],
			"source": "https://trashserver.net",
			"comment": ""
		},
		"groupChatSupport": {},
		"chatSupport": {
			"de": {
				"content": [
					"admin@trashserver.net"
				],
				"source": "https://trashserver.net/kontakt",
				"comment": ""
			},
			"en": {
				"content": [
					"admin@trashserver.net"
				],
				"source": "https://trashserver.net/en/contact",
				"comment": ""
			}
		},
		"emailSupport": {
			"de": {
				"content": [
					"xmpp@trashserver.net"
				],
				"source": "https://trashserver.net/kontakt",
				"comment": ""
			},
			"en": {
				"content": [
					"xmpp@trashserver.net"
				],
				"source": "https://trashserver.net/en/contact",
				"comment": ""
			}
		},
		"onlineSince": {
			"content": "2012-12-31",
			"source": "https://trashserver.net/faq",
			"comment": "TODO: Insert correct month and day"
		}
	},
	"yax.im": {
		"lastCheck": {
			"content": "2021-03-03",
			"comment": ""
		},
		"website": {
			"content": {
				"en": "https://yaxim.org/yax.im/"
			},
			"comment": ""
		},
		"busFactor": {
			"content": -1,
			"source": "",
			"comment": ""
		},
		"company": {
			"content": false,
			"source": "https://yaxim.org/yax.im/tos/",
			"comment": ""
		},
		"passwordReset": {
			"content": {},
			"source": "https://yaxim.org/yax.im/",
			"comment": ""
		},
		"inBandRegistration": {
			"content": true,
			"source": "https://yaxim.org/yax.im/",
			"comment": ""
		},
		"registrationWebPage": {
			"content": {},
			"source": "https://yaxim.org/yax.im/",
			"comment": ""
		},
		"ratingXmppComplianceTester": {
			"content": 85,
			"source": "https://compliance.conversations.im/server/yax.im/",
			"comment": ""
		},
		"ratingImObservatoryClientToServer": {
			"content": "A",
			"source": "https://xmpp.net/result.php?domain=yax.im&type=client",
			"comment": ""
		},
		"ratingImObservatoryServerToServer": {
			"content": "A",
			"source": "https://xmpp.net/result.php?domain=yax.im&type=server",
			"comment": ""
		},
		"maximumHttpFileUploadFileSize": {
			"content": 75,
			"source": "",
			"comment": ""
		},
		"maximumHttpFileUploadTotalSize": {
			"content": 0,
			"source": "",
			"comment": ""
		},
		"maximumHttpFileUploadStorageTime": {
			"content": 30,
			"source": "https://yaxim.org/yax.im/privacy/",
			"comment": ""
		},
		"maximumMessageArchiveManagementStorageTime": {
			"content": 14,
			"source": "https://yaxim.org/yax.im/privacy/",
			"comment": ""
		},
		"professionalHosting": {
			"content": false,
			"source": "",
			"comment": ""
		},
		"freeOfCharge": {
			"content": true,
			"source": "https://yaxim.org/yax.im/",
			"comment": ""
		},
		"legalNotice": {
			"content": {
				"en": "https://yaxim.org/yax.im/tos/"
			},
			"comment": ""
		},
		"serverLocations": {
			"content": [
				"de"
			],
			"source": "https://yaxim.org/yax.im/",
			"comment": ""
		},
		"groupChatSupport": {
			"en": {
				"content": [
					"yaxim@chat.yax.im"
				],
				"source": "https://yaxim.org",
				"comment": ""
			}
		},
		"chatSupport": {
			"de": {
				"content": [],
				"source": "",
				"comment": "georg@yax.im: German should be supported but a source could not be found"
			},
			"en": {
				"content": [
					"georg@yax.im"
				],
				"source": "https://yaxim.org/yax.im/privacy/",
				"comment": ""
			}
		},
		"emailSupport": {
			"de": {
				"content": [],
				"source": "",
				"comment": "georg@yax.im: German should be supported but a source could not be found"
			},
			"en": {
				"content": [
					"georg@yax.im"
				],
				"source": "https://yaxim.org/yax.im/privacy/",
				"comment": ""
			}
		},
		"onlineSince": {
			"content": "2013-12-27",
			"source": "https://yaxim.org/yax.im/",
			"comment": ""
		}
	}
}
